<?xml version="1.0" standalone="no"?>
<!DOCTYPE svg PUBLIC "-//W3C//DTD SVG 1.1//EN" "http://www.w3.org/Graphics/SVG/1.1/DTD/svg11.dtd" >
<svg xmlns="http://www.w3.org/2000/svg" xmlns:xlink="http://www.w3.org/1999/xlink" version="1.1">
<metadata>
Created by FontForge 20170731 at Wed Jun  5 20:47:28 2002
 By ,,,
Copyright (c) 1988, 1990, 1993, 2002 Adobe Systems Incorporated.  All Rights Reserved. (c) 1981, 2002 Heidelberger Druckmaschinen AG. All rights reserved.
</metadata>
<defs>
<font id="HelveticaNeueLTStd-Hv" horiz-adv-x="667" >
  <font-face 
    font-family="HelveticaNeueLT Std Med"
    font-weight="750"
    font-stretch="normal"
    units-per-em="1000"
    panose-1="2 11 8 4 2 2 2 2 2 4"
    ascent="714"
    descent="-286"
    bbox="-19 -174 1067 907"
    underline-thickness="50"
    underline-position="-200"
    unicode-range="U+0020-0192"
  />
<missing-glyph horiz-adv-x="500" 
d="M0 0v700h500v-700h-500zM250 395l170 255h-340zM280 350l170 -255v510zM80 50h340l-170 255zM50 605v-510l170 255z" />
    <glyph glyph-name=".notdef" horiz-adv-x="500" 
d="M0 0v700h500v-700h-500zM250 395l170 255h-340zM280 350l170 -255v510zM80 50h340l-170 255zM50 605v-510l170 255z" />
    <glyph glyph-name=".null" horiz-adv-x="0" 
 />
    <glyph glyph-name="nonmarkingreturn" horiz-adv-x="333" 
 />
    <glyph glyph-name="space" unicode=" " horiz-adv-x="315" 
 />
    <glyph glyph-name="dotlessi" unicode="&#x131;" horiz-adv-x="296" 
d="M233 0h-170v519h170v-519z" />
    <glyph glyph-name="Lslash" unicode="&#x141;" horiz-adv-x="611" 
d="M64 0v190l-66 -45v119l66 45v405h186v-276l180 124v-119l-180 -124v-159h333v-160h-519z" />
    <glyph glyph-name="lslash" unicode="&#x142;" horiz-adv-x="296" 
d="M63 0v270l-78 -59v112l78 59v332h170v-202l78 59v-112l-78 -59v-400h-170z" />
    <glyph glyph-name="OE" unicode="&#x152;" horiz-adv-x="1111" 
d="M1059 714v-149h-347v-125h317v-144h-317v-136h355v-160h-529v45q-54 -60 -162 -60q-102 0 -181 53t-118.5 137t-39.5 182t39.5 182t118.5 137t181 53q112 0 160 -62h2v47h521zM396 569q-90 0 -131.5 -60.5t-41.5 -151.5t41.5 -151.5t131.5 -60.5q64 0 102 49t38 115v96
q0 66 -38 115t-102 49z" />
    <glyph glyph-name="oe" unicode="&#x153;" horiz-adv-x="963" 
d="M553 313h212q-12 106 -104 106q-45 0 -75 -30.5t-33 -75.5zM202 262q0 -147 108 -147q52 0 75 44t23 100q0 145 -96 145q-58 0 -84 -41t-26 -101zM935 218h-380q-1 -52 32.5 -85t86.5 -33q36 0 57.5 13t36.5 44h162q-24 -84 -96 -128t-167 -44q-124 0 -186 76
q-60 -76 -187 -76q-119 0 -190.5 73.5t-71.5 193.5q0 126 74.5 204t199.5 78q127 0 182 -77q28 36 78.5 56.5t99.5 20.5q136 0 204 -88t65 -228z" />
    <glyph glyph-name="Scaron" unicode="&#x160;" 
d="M23 240h186q5 -111 135 -111q47 0 80.5 18t33.5 55q0 18 -10 31.5t-34.5 24.5t-42 16.5t-59 16t-59.5 15.5q-45 13 -77 27t-64.5 37t-50 59t-17.5 83q0 74 46 125t109.5 71.5t135.5 20.5q118 0 201.5 -58.5t84.5 -171.5h-186q2 45 -32 65.5t-83 20.5q-36 0 -63 -14.5
t-27 -46.5q0 -16 10.5 -28t34 -21t43.5 -15t58.5 -15t60.5 -15q44 -12 76.5 -26.5t64.5 -38t49 -59.5t17 -82q0 -65 -26 -113t-71.5 -74.5t-98.5 -39t-115 -12.5q-134 0 -221.5 63t-88.5 192zM410 758h-152l-112 149h128l60 -80l60 80h128z" />
    <glyph glyph-name="scaron" unicode="&#x161;" horiz-adv-x="556" 
d="M27 171h162q0 -37 28 -58q24 -18 63 -18q30 0 55 13.5t25 41.5q0 6 -1.5 12t-5.5 10.5t-7.5 8t-10.5 6.5t-11 5t-12.5 4.5t-12 3.5t-12 3t-10.5 2q-16 4 -54 12t-57 13t-48.5 17.5t-44 27.5t-26 40.5t-11.5 59.5q0 45 22 77.5t59 49.5t75.5 24.5t80.5 7.5q46 0 85 -7.5
t74.5 -25.5t56.5 -52.5t23 -82.5h-157q0 31 -22 45q-20 13 -54 13q-73 0 -73 -39q0 -14 11.5 -24.5t35 -18.5t43 -12.5t53.5 -10.5t49 -9q70 -14 101 -56t31 -84q0 -66 -39 -109t-92.5 -59.5t-117.5 -16.5q-49 0 -91 9t-79.5 29t-59.5 58t-24 90zM354 575h-152l-112 149h128
l60 -80l60 80h128z" />
    <glyph glyph-name="Ydieresis" unicode="&#x178;" 
d="M687 714l-260 -448v-266h-186v266l-260 448h211l142 -290l142 290h211zM516 772h-150v125h150v-125zM153 772v125h150v-125h-150z" />
    <glyph glyph-name="Zcaron" unicode="&#x17d;" 
d="M24 0v152l366 402h-344v160h584v-144l-375 -410h388v-160h-619zM410 758h-152l-112 149h128l60 -80l60 80h128z" />
    <glyph glyph-name="zcaron" unicode="&#x17e;" horiz-adv-x="537" 
d="M22 0v132l259 257h-238v130h454v-129l-259 -260h278v-130h-494zM345 575h-152l-112 149h128l60 -80l60 80h128z" />
    <glyph glyph-name="florin" unicode="&#x192;" horiz-adv-x="630" 
d="M157 421h97l26 138q17 94 70 132t151 38q1 0 79 -3l-23 -125q-27 3 -46 3q-27 0 -41 -15.5t-21 -54.5l-21 -113h96l-20 -110h-96l-57 -305q-19 -102 -68.5 -141t-153.5 -39q-13 0 -38.5 1.5t-38.5 1.5l19 125q24 -3 42 -3q27 0 42 13t22 49l57 298h-97z" />
    <hkern g1="Lslash"
	g2="Ydieresis"
	k="129" />
    <hkern g1="Ydieresis"
	g2="oe"
	k="92" />
  </font>
</defs></svg>
