<?xml version="1.0" standalone="no"?>
<!DOCTYPE svg PUBLIC "-//W3C//DTD SVG 1.1//EN" "http://www.w3.org/Graphics/SVG/1.1/DTD/svg11.dtd" >
<svg xmlns="http://www.w3.org/2000/svg" xmlns:xlink="http://www.w3.org/1999/xlink" version="1.1">
<metadata>
Created by FontForge 20170731 at Thu May 15 13:08:53 2003
 By ,,,
Copyright (c) 1988, 1990, 1993, 2002 Adobe Systems Incorporated.  All Rights Reserved.
</metadata>
<defs>
<font id="HelveticaNeueLTStd-Roman" horiz-adv-x="222" >
  <font-face 
    font-family="HelveticaNeueLT Std"
    font-weight="400"
    font-stretch="normal"
    units-per-em="1000"
    panose-1="2 11 6 4 2 2 2 2 2 4"
    ascent="714"
    descent="-286"
    bbox="-1 -165 1034 908"
    underline-thickness="50"
    underline-position="-200"
    unicode-range="U+0020-0192"
  />
<missing-glyph horiz-adv-x="500" 
d="M0 0v700h500v-700h-500zM250 395l170 255h-340zM280 350l170 -255v510zM80 50h340l-170 255zM50 605v-510l170 255z" />
    <glyph glyph-name=".notdef" horiz-adv-x="500" 
d="M0 0v700h500v-700h-500zM250 395l170 255h-340zM280 350l170 -255v510zM80 50h340l-170 255zM50 605v-510l170 255z" />
    <glyph glyph-name=".null" horiz-adv-x="0" 
 />
    <glyph glyph-name="nonmarkingreturn" horiz-adv-x="333" 
 />
    <glyph glyph-name="space" unicode=" " horiz-adv-x="278" 
 />
    <glyph glyph-name="dotlessi" unicode="&#x131;" 
d="M154 0h-85v517h85v-517z" />
    <glyph glyph-name="Lslash" unicode="&#x141;" horiz-adv-x="556" 
d="M78 0v240l-79 -56v76l79 56v398h95v-330l228 160v-76l-228 -160v-228h378v-80h-473z" />
    <glyph glyph-name="lslash" unicode="&#x142;" 
d="M69 0v321l-70 -55v71l70 56v321h85v-254l70 56v-71l-70 -56v-389h-85z" />
    <glyph glyph-name="OE" unicode="&#x152;" horiz-adv-x="1074" 
d="M372 63q76 0 127.5 40t51.5 101v301q0 46 -15 69q-22 33 -65 55t-97 22q-116 0 -178.5 -86t-62.5 -214q0 -125 63 -206.5t176 -81.5zM551 0v69h-2q-26 -40 -76.5 -63t-107.5 -23q-154 0 -240.5 105t-86.5 267q0 165 90 270.5t245 105.5q54 0 105 -20t71 -56h2v59h477v-80
h-382v-227h350v-80h-350v-247h388v-80h-483z" />
    <glyph glyph-name="oe" unicode="&#x153;" horiz-adv-x="891" 
d="M864 233h-375q-2 -71 37.5 -120.5t111.5 -49.5q51 0 88 26.5t52 74.5h81q-51 -176 -221 -176q-144 0 -188 102q-44 -102 -179 -102q-116 0 -175.5 76.5t-59.5 194.5q0 119 60 194.5t175 75.5q136 0 179 -91q26 44 76 67.5t107 23.5q123 0 180.5 -83t50.5 -213zM489 308
h285q0 66 -37.5 106t-103.5 40t-105.5 -40.5t-38.5 -105.5zM415 260q0 194 -144 194q-75 0 -110 -59.5t-35 -146.5q0 -75 36 -130t109 -55q54 0 87.5 31t45 72.5t11.5 93.5z" />
    <glyph glyph-name="Scaron" unicode="&#x160;" horiz-adv-x="648" 
d="M581 505h-90q-16 146 -177 146q-68 0 -114 -29t-46 -93q0 -14 3.5 -26.5t12.5 -22t17.5 -17.5t24.5 -15t28 -11.5t33 -10t34.5 -8.5t38 -8t37.5 -8q50 -11 85 -24t70.5 -35.5t54 -59.5t18.5 -87q0 -72 -44 -122t-104.5 -70.5t-130.5 -20.5q-128 0 -211.5 64t-83.5 188h90
q0 -85 60 -128.5t148 -43.5q76 0 128.5 30t52.5 100q0 26 -11.5 46.5t-29 33.5t-46.5 24t-54.5 17t-62.5 14q-16 3 -24 5q-41 9 -68.5 16.5t-60.5 23t-53 34t-33.5 48t-13.5 67.5q0 102 76 155.5t183 53.5q115 0 187 -56.5t76 -169.5zM474 908l-103 -143h-93l-104 143h84
l69 -96l70 96h77z" />
    <glyph glyph-name="scaron" unicode="&#x161;" horiz-adv-x="500" 
d="M31 163h85q2 -53 41 -76.5t98 -23.5q125 0 125 77q0 11 -2.5 20t-9.5 16.5t-12.5 13.5t-18 11t-20.5 8.5t-25 8t-25 6.5t-28 6t-28 6q-37 8 -62.5 17t-52.5 25.5t-40.5 42.5t-13.5 61q0 72 58 109.5t135 37.5q203 0 212 -162h-85q-4 46 -38 66.5t-82 20.5q-46 0 -78 -15
t-32 -51q0 -13 4.5 -23t15.5 -18t21 -14t28.5 -11t31 -8t35 -8t33.5 -8q38 -8 63.5 -17t52 -25.5t40 -42.5t13.5 -62q0 -44 -19 -77t-52 -51t-70 -26.5t-79 -8.5q-95 0 -155 42.5t-64 132.5zM400 731l-103 -143h-93l-104 143h84l69 -96l70 96h77z" />
    <glyph glyph-name="Ydieresis" unicode="&#x178;" horiz-adv-x="648" 
d="M646 714l-273 -422v-292h-95v292l-276 422h113l214 -340l209 340h108zM373 769v104h90v-104h-90zM185 769v104h90v-104h-90z" />
    <glyph glyph-name="Zcaron" unicode="&#x17d;" horiz-adv-x="611" 
d="M22 0v80l444 554h-410v80h522v-80l-443 -554h455v-80h-568zM456 908l-103 -143h-93l-104 143h84l69 -96l70 96h77z" />
    <glyph glyph-name="zcaron" unicode="&#x17e;" horiz-adv-x="480" 
d="M22 0v65l312 377h-292v75h402v-58l-316 -384h330v-75h-436zM390 731l-103 -143h-93l-104 143h84l69 -96l70 96h77z" />
    <glyph glyph-name="florin" unicode="&#x192;" horiz-adv-x="556" 
d="M492 714l-14 -75h-59q-50 0 -62 -52l-31 -138h102l-14 -68h-100l-55 -311q-24 -135 -65 -185t-125 -50h-66l14 75q80 0 103 17t36 85l70 369h-92l13 68h91l26 136q12 59 52 94t102 35h74z" />
    <hkern g1="Lslash"
	g2="Ydieresis"
	k="111" />
    <hkern g1="Ydieresis"
	g2="oe"
	k="111" />
  </font>
</defs></svg>
