<?xml version="1.0" standalone="no"?>
<!DOCTYPE svg PUBLIC "-//W3C//DTD SVG 1.1//EN" "http://www.w3.org/Graphics/SVG/1.1/DTD/svg11.dtd" >
<svg xmlns="http://www.w3.org/2000/svg" xmlns:xlink="http://www.w3.org/1999/xlink" version="1.1">
<metadata>
Created by FontForge 20170731 at Wed Jun  5 20:44:04 2002
 By ,,,
Copyright (c) 1988, 1990, 1993, 2002 Adobe Systems Incorporated.  All Rights Reserved. (c) 1981, 2002 Heidelberger Druckmaschinen AG. All rights reserved.
</metadata>
<defs>
<font id="HelveticaNeueLTStd-Bd" horiz-adv-x="258" >
  <font-face 
    font-family="HelveticaNeueLT Std"
    font-weight="700"
    font-stretch="normal"
    units-per-em="1000"
    panose-1="2 11 8 4 2 2 2 2 2 4"
    ascent="714"
    descent="-286"
    bbox="-11 -170 1051 920"
    underline-thickness="50"
    underline-position="-200"
    unicode-range="U+0020-0192"
  />
<missing-glyph horiz-adv-x="500" 
d="M0 0v700h500v-700h-500zM250 395l170 255h-340zM280 350l170 -255v510zM80 50h340l-170 255zM50 605v-510l170 255z" />
    <glyph glyph-name=".notdef" horiz-adv-x="500" 
d="M0 0v700h500v-700h-500zM250 395l170 255h-340zM280 350l170 -255v510zM80 50h340l-170 255zM50 605v-510l170 255z" />
    <glyph glyph-name=".null" horiz-adv-x="0" 
 />
    <glyph glyph-name="nonmarkingreturn" horiz-adv-x="333" 
 />
    <glyph glyph-name="space" unicode=" " horiz-adv-x="278" 
 />
    <glyph glyph-name="dotlessi" unicode="&#x131;" 
d="M58 0v517h142v-517h-142z" />
    <glyph glyph-name="Lslash" unicode="&#x141;" horiz-adv-x="593" 
d="M69 0v214l-80 -56v112l80 56v388h157v-278l211 148v-112l-211 -148v-192h348v-132h-505z" />
    <glyph glyph-name="lslash" unicode="&#x142;" 
d="M58 0v286l-67 -53v102l67 53v326h142v-214l67 53v-102l-67 -53v-398h-142z" />
    <glyph glyph-name="OE" unicode="&#x152;" horiz-adv-x="1093" 
d="M544 0v54h-2q-31 -34 -77.5 -52.5t-94.5 -18.5q-153 0 -242.5 107.5t-89.5 262.5q0 156 91.5 267t243.5 111q116 0 169 -68h2v51h500v-132h-354v-153h324v-122h-324v-175h361v-132h-507zM538 278v170q0 67 -43.5 109t-110.5 42q-50 0 -88 -21t-59 -56.5t-31.5 -77.5
t-10.5 -89q0 -99 46.5 -169.5t139.5 -70.5q72 0 114.5 45t42.5 118z" />
    <glyph glyph-name="oe" unicode="&#x153;" horiz-adv-x="926" 
d="M528 314h227q-2 51 -31 80.5t-84 29.5q-51 0 -80.5 -31t-31.5 -79zM290 93q114 0 114 167q0 164 -111 164q-60 0 -86.5 -49.5t-26.5 -118.5q0 -64 26 -113.5t84 -49.5zM897 224h-369q0 -58 31.5 -94.5t91.5 -36.5q75 0 104 71h138q-25 -84 -89.5 -131t-152.5 -47
q-132 0 -187 88q-25 -44 -75.5 -66t-107.5 -22q-115 0 -179 79t-64 196q0 116 70 193t184 77q127 0 178 -82q26 38 75 60t98 22q129 0 191.5 -86t62.5 -221z" />
    <glyph glyph-name="Scaron" unicode="&#x160;" horiz-adv-x="649" 
d="M24 237h152q0 -67 44.5 -99.5t113.5 -32.5q33 0 61.5 6.5t53 27.5t24.5 55q0 16 -5.5 29t-18.5 23.5t-25.5 17.5t-35.5 14t-38.5 11.5t-44.5 11.5t-44 11q-47 12 -79 25t-66 36t-51 58.5t-17 83.5q0 69 40.5 120t99.5 73.5t127 22.5q79 0 141 -22t103.5 -75.5
t41.5 -132.5h-152q-6 108 -141 108q-43 0 -75.5 -20t-32.5 -61q0 -39 34 -55t179 -53q95 -24 141 -59q71 -55 71 -149q0 -102 -78 -165.5t-219 -63.5q-129 0 -217 65t-87 189zM500 920l-110 -142h-130l-111 142h112l64 -81l65 81h110z" />
    <glyph glyph-name="scaron" unicode="&#x161;" horiz-adv-x="537" 
d="M29 168h135q1 -44 32 -65.5t77 -21.5q37 0 65 16t28 50q0 16 -9.5 27.5t-33.5 21t-48.5 15.5t-69.5 16q-36 8 -61 17t-50.5 24.5t-39 39.5t-13.5 57q0 47 19 81t52.5 52t71 25.5t82.5 7.5q95 0 157.5 -38.5t70.5 -126.5h-135q-5 70 -97 70q-79 0 -79 -48q0 -11 4.5 -19.5
t14 -15t19 -11t26.5 -9t29.5 -7.5t33.5 -7.5t34 -7.5q77 -18 120.5 -49t43.5 -96q0 -94 -67.5 -137t-168.5 -43t-170 43.5t-73 138.5zM444 723l-110 -142h-130l-111 142h112l64 -81l65 81h110z" />
    <glyph glyph-name="Ydieresis" unicode="&#x178;" horiz-adv-x="667" 
d="M254 0v278l-263 436h177l167 -282l166 282h175l-265 -440v-274h-157zM369 794v117h135v-117h-135zM163 794v117h135v-117h-135z" />
    <glyph glyph-name="Zcaron" unicode="&#x17d;" horiz-adv-x="648" 
d="M23 0v124l383 458h-353v132h562v-124l-383 -458h393v-132h-602zM500 920l-110 -142h-130l-111 142h112l64 -81l65 81h110z" />
    <glyph glyph-name="zcaron" unicode="&#x17e;" horiz-adv-x="519" 
d="M22 0v107l269 303h-249v107h436v-107l-269 -303h288v-107h-475zM435 723l-110 -142h-130l-111 142h112l64 -81l65 81h110z" />
    <glyph glyph-name="florin" unicode="&#x192;" horiz-adv-x="556" 
d="M-5 -167l19 107q19 -3 40 -3q36 -1 50.5 16t21.5 55l63 329h-92l18 95h91l24 127q18 95 63.5 133.5t142.5 38.5q40 0 75 -7l-18 -107q-17 7 -40 7q-38 0 -54 -14t-22 -48l-25 -130h98l-16 -95h-100l-56 -310q-20 -108 -62 -152.5t-147 -44.5q-32 0 -74 3z" />
    <hkern g1="Lslash"
	g2="Ydieresis"
	k="111" />
    <hkern g1="Ydieresis"
	g2="oe"
	k="92" />
  </font>
</defs></svg>
